{
  "metadata": {
    "createdAt": "2025-04-02T15:30:00Z",
    "expiresAt": "2025-04-02T16:30:00Z",
    "version": "1.0.0",
    "source": "api/users",
    "params": {
      "page": 1,
      "limit": 10,
      "sort": "createdAt",
      "order": "desc"
    }
  },
  "data": {
    "users": [
      {
        "id": "user-001",
        "username": "johndoe",
        "email": "john.doe@example.com",
        "firstName": "John",
        "lastName": "Doe",
        "role": "admin",
        "createdAt": "2025-03-15T10:20:30Z"
      },
      {
        "id": "user-002",
        "username": "janedoe",
        "email": "jane.doe@example.com",
        "firstName": "Jane",
        "lastName": "Doe",
        "role": "user",
        "createdAt": "2025-03-20T14:25:10Z"
      },
      {
        "id": "user-003",
        "username": "bobsmith",
        "email": "bob.smith@example.com",
        "firstName": "Bob",
        "lastName": "Smith",
        "role": "user",
        "createdAt": "2025-03-25T09:15:45Z"
      }
    ],
    "pagination": {
      "total": 25,
      "page": 1,
      "limit": 10,
      "pages": 3
    }
  }
}
